\relax 
\@writefile{toc}{\contentsline {section}{\numberline {1}Introduction}{1}}
\@writefile{toc}{\contentsline {section}{\numberline {2}Results}{1}}
\@writefile{toc}{\contentsline {subsection}{\numberline {2.1}Leaky integrators infer Poisson intensity \\ ratios exactly and online}{1}}
\newlabel{LI}{{2.1}{1}}
\@writefile{lof}{\contentsline {figure}{\numberline {1}{\ignorespaces \relax \fontsize  {7}{8}\selectfont  A leaky integrator calculates one specific ratio of the intensity's posterior in real-time. Left, top: Observed afferent spiking output $S$. We simulated a Poisson process with intensity $\lambda =10$ for 1000 time steps of duration $dt = 0.0001$. One spike occurred at time step 651. Left, bottom: Various snapshots of $\qopname  \relax m{Pr}(\lambda |S)$ as the afferent spiking output is observed in time. We assumed a uniform prior (trace 0) over $\lambda \in [0,100]$ ($\lambda $ only shown up to 65). As no spikes are observed (traces 250, 500), the posterior decays to the left, as lower values of $\lambda $ become more likely. At time step 651, when a spike is observed, the posterior jumps to the right, as higher values of $\lambda $ become more likely (trace 651). As no spikes are observed, the posterior decays to the left again (traces 850, 1000). Right: Ratios of the posterior between various points $\lambda _1, \lambda _2, \lambda _3$ and $\lambda _4$ as marked in the left panel. Ratios are plotted in time with thick gray lines. The thin black lines (labeled RC) are the voltage traces of three leaky integrators with time constants $\tau _{12} = 1/(\lambda _1-\lambda _2)$, $\tau _{13} = 1/(\lambda _1-\lambda _3)$, $\tau _{14} = 1/(\lambda _1-\lambda _4)$, and synaptic weights $w_{12} = \lambda _1/\lambda _2$, $w_{13}=\lambda _1/\lambda _3$, $w_{14} = \lambda _1/\lambda _4$. A leaky integrator (Eqs.\ 1\hbox {}, 2\hbox {}) with a particular time constant and synaptic weight computes one specific posterior ratio exactly and in real-time.}}{2}}
\newlabel{bigpicture}{{1}{2}}
\newlabel{leaky}{{1}{2}}
\newlabel{realleaky}{{2}{3}}
\@writefile{toc}{\contentsline {subsection}{\numberline {2.2}Thresholded LIs implement sequential probability ratio tests}{3}}
\newlabel{Wald}{{2.2}{3}}
\@writefile{lof}{\contentsline {figure}{\numberline {2}{\ignorespaces \relax \fontsize  {7}{8}\selectfont  A thresholded LI performs a SPRT on two particular Poisson intensities. Wald's analysis yields the probability that the LI will accept either intensity, and the (conditional and marginal) distributions of the time required for it to do so. Main plot: 8 example LI voltage traces, each starting at 1, with black dots marking their threshold crossings. Solid black traces near each threshold $b$ and $a$ are the distributions of time required for the LI to hit that threshold, obtained from the conditional characteristic functions (see text). Histograms are the results of 100000 simulations. Upper inset: Solid black trace is the marginal distribution of time required for the LI to hit a threshold, with conditional time distributions replotted as dashed black traces. Histogram shows simulation results. If we reset the LI's voltage when it crosses a threshold and repeat the SPRT, then this marginal distribution is the LI's interspike interval distribution. Lower inset: Probabilities that the LI will accept either intensity, and the percentage of acceptances observed in simulations. Simulations fit Wald's analysis very well, but not exactly, due to overshoots of threshold $b$. When the overshoot is negligible compared to the distance between the thresholds, the fit becomes exact. For all plots, $\lambda _1 = 45$ Hz, $\lambda _2 = 40$ Hz, and the true afferent spiking intensity was $\lambda = 40$ Hz. The time step duration $\Delta t = .001$s, and the units of the horizontal axes are the number of time steps. The thresholds $b = 1.5$ and $a = .3$.}}{4}}
\newlabel{SPRT}{{2}{4}}
\@writefile{toc}{\contentsline {subsection}{\numberline {2.3}Probabilistic interpretation of biophysical parameters}{4}}
\@writefile{toc}{\contentsline {subsubsection}{\numberline {2.3.1}Time constant}{4}}
\@writefile{lof}{\contentsline {figure}{\numberline {3}{\ignorespaces \relax \fontsize  {7}{8}\selectfont  A probabilistic interpretation of $\tau $, $w$, $b$, and $a$. Upper-left: LIs with large $\tau $ evaluate the posterior ratio at closely-spaced pairs $(\lambda _1,\lambda _2)$ (marked 1, 2, and 3), and vice versa (marked 4 and 5). The value of $w$ uniquely determines $(\lambda _1,\lambda _2)$. Pairs 1, 2, and 3 are given by $\tau = 100$ ms and $w = 20/10, 210/200$, and $410/400$, respectively. Pairs 4 and 5 are given by $\tau = 2.5$ ms and $w = 440/40$ and $470/70$ respectively. The black trace represents a hypothetical posterior. Upper-right: As $\tau $ increases, the conditional distributions of threshold crossing time $T$ shift higher and spread more. A LI that distinguishes between disparate intensity values requires a smaller and more predictable number of observations of the afferent's spiking output than a LI that distinguishes between similar intensity values. Lower-left: Snapshot of the responses of LIs with $\tau = 100$ ms (white triangles) or $25$ ms (black triangles), but each with different weights. Each triangle represents the ratio of the posterior at two points and plots that ratio between the points (inset, blow-up of region in the box). Up-pointing triangles divide the right point by the left point, so $\lambda _1>\lambda _2$, $w>1$, and afferent spikes depolarize the LI (the LI is `excitatory'). Down-pointing triangles divide the left point by the right point, so afferent spikes hyperpolarize the LI (the LI is `inhibitory'). For example, in the inset, $w = 300/290$ (up-pointing arrow) and $290/300$ (down-pointing arrow). If the posterior is unimodal, these `excitatory' and `inhibitory' voltage traces cross each other near the peak of the posterior, when each has a value of 1. Excitatory and inhibitory inputs balance near the posterior's peak and are lopsided on its tails. Lower-right: A thresholded LI can accept an intensity with an arbitrarily high significance level, but this increases and spreads the conditional distributions of the threshold crossing time. Thresholded LIs experience both a speed-confidence and a speed-predictability trade-off.}}{5}}
\newlabel{bigpicture}{{3}{5}}
\@writefile{toc}{\contentsline {subsubsection}{\numberline {2.3.2}Synaptic weight}{5}}
\@writefile{toc}{\contentsline {subsubsection}{\numberline {2.3.3}Thresholds}{6}}
\newlabel{threshold}{{2.3.3}{6}}
\@writefile{toc}{\contentsline {section}{\numberline {3}Discussion}{6}}
\@writefile{toc}{\contentsline {section}{\numberline {4}Appendix}{7}}
\newlabel{roots}{{4}{7}}
